Place,Name,BirthDate,Sex,BirthYear,Age,Country,State,Equipment,Division,BodyweightKg,WeightClassKg,Squat1Kg,Squat2Kg,Squat3Kg,Best3SquatKg,Bench1Kg,Bench2Kg,Bench3Kg,Best3BenchKg,Deadlift1Kg,Deadlift2Kg,Deadlift3Kg,Best3DeadliftKg,TotalKg,Event
1,Brooke Rodwell,,F,1996,27,Australia,,Wraps,Open,74.7,75,140,150,,150,57.5,62.5,-67.5,62.5,140,150,-157.5,150,362.5,SBD
1,Nancy Bellew,,F,1955,68,Australia,,Raw,Open,59.6,60,60,65,70,70,45,47.5,-50,47.5,75,85,95,95,212.5,SBD
1,Alice Ndayishimiye,,F,1998,25,Australia,,Raw,Open,66.5,67.5,120,130,137.5,137.5,55,60,-62.5,60,150,157.5,165,165,362.5,SBD
2,Vanessa Sandoval,,F,1997,26,Australia,,Raw,Open,65.5,67.5,105,115,-122.5,115,67.5,72.5,-75,72.5,125,135,-145,135,322.5,SBD
DQ,Aisling Conway,,F,1994,29,Australia,,Raw,Open,65.8,67.5,-117.5,-117.5,-117.5,,55,57.5,60,60,120,125,130,130,,SBD
1,Peta Ker,,F,1995,28,Australia,,Raw,Open,73.9,75,125,132.5,137.5,137.5,80,85,-87.5,85,160,170,175,175,397.5,SBD
2,Ashleigh Jenkins,,F,1997,26,Australia,,Raw,Open,72.5,75,135,145,-155,145,82.5,87.5,-90,87.5,150,160,-167.5,160,392.5,SBD
3,Camilla Aakhus,,F,2001,22,Australia,,Raw,Open,70.6,75,125,132.5,-140,132.5,62.5,70,-75,70,150,160,-167.5,160,362.5,SBD
4,Brandy Muller,,F,1999,24,Australia,,Raw,Open,72.7,75,120,130,137.5,137.5,62.5,70,-72.5,70,125,142.5,147.5,147.5,355,SBD
5,Molly Stuart,,F,1995,28,Australia,,Raw,Open,74.1,75,92.5,102.5,112.5,112.5,52.5,57.5,-62.5,57.5,120,135,147.5,147.5,317.5,SBD
6,Michelle Young,,F,1990,33,Australia,,Raw,Open,73.1,75,-85,85,95,95,55,-60,-60,55,107.5,115,-125,115,265,SBD
7,Sophie Malia,,F,1993,30,Australia,,Raw,Open,73.1,75,90,-100,-102.5,90,40,-47.5,-47.5,40,110,120,130,130,260,SBD
1,Jaimi Nagle,,F,1989,34,Australia,,Raw,Open,79.2,82.5,95,-102.5,-105,95,50,55,-57.5,55,115,130,-137.5,130,280,SBD
1,Victoria Boutros,,F,1990,33,Australia,,Raw,Open,89.3,90,115,122.5,130,130,60,65,67.5,67.5,125,140,152.5,152.5,350,SBD
1,Kim Popata,,F,1975,48,Australia,,Raw,Open,94.1,100,95,105,112.5,112.5,57.5,60,62.5,62.5,115,127.5,137.5,137.5,312.5,SBD
1,Grace Macleod,,F,2001,22,Australia,,Raw,Open,108.9,110,120,132.5,142.5,142.5,70,75,77.5,77.5,127.5,145,160,160,380,SBD
1,Marco Gabriel Llamas,,M,1991,32,Australia,,Wraps,Open,82,82.5,225,-242.5,-242.5,225,142.5,150,155,155,220,240,-250,240,620,SBD
1,Talen Holden,,M,2003,20,Australia,,Wraps,Open,87.6,90,-140,140,155,155,65,72.5,77.5,77.5,150,160,170,170,402.5,SBD
1,Angus Everson,,M,1998,25,Australia,,Wraps,Open,98.2,100,197.5,212.5,-220,212.5,125,135,-140,135,230,240,-252.5,240,587.5,SBD
1,Daniel Crowder,,M,1997,26,Australia,,Wraps,Open,121.3,125,250,262.5,272.5,272.5,137.5,145,152.5,152.5,257.5,272.5,-280,272.5,697.5,SBD
1,William Robinson,,M,2006,17,Australia,,Wraps,Open,130.9,140,130,140,147.5,147.5,67.5,75,82.5,82.5,165,180,190,190,420,SBD
1,Jadon Kumar,,M,2004,19,Australia,,Raw,Open,62.1,67.5,95,105,115,115,60,65,-72.5,65,135,145,155,155,335,SBD
1,Michael Jones #2,,M,1996,27,Australia,,Raw,Open,73.5,75,150,157.5,162.5,162.5,130,-145,-145,130,185,197.5,205,205,497.5,SBD
2,Jake Findlay,,M,2002,21,Australia,,Raw,Open,73.8,75,-135,142.5,150,150,85,95,-102.5,95,175,190,-195,190,435,SBD
1,Joshua Horvat,,M,2002,21,Australia,,Raw,Open,80.1,82.5,160,-172.5,-175,160,95,105,-110,105,205,-215,220,220,485,SBD
2,Jason Kotzur,,M,1992,31,Australia,,Raw,Open,78.8,82.5,120,127.5,135,135,-80,90,-95,90,155,170,175,175,400,SBD
1,Jordan Crean-Stuttard,,M,1998,25,Australia,,Raw,Open,83.75,90,222.5,-230,232.5,232.5,125,132.5,-137.5,132.5,230,237.5,245,245,610,SBD
2,Toby Tresize,,M,1998,25,Australia,,Raw,Open,89.1,90,225,235,-242.5,235,125,130,-135,130,215,225,235,235,600,SBD
3,Tommy Du,,M,1989,33,Australia,,Raw,Open,88.4,90,-190,195,-200,195,120,125,-130,125,-235,235,240,240,560,SBD
4,Lachlan Hubble,,M,2002,21,Australia,,Raw,Open,85.8,90,185,195,200,200,110,120,-127.5,120,210,220,-230,220,540,SBD
5,Luke Sutton,,M,1992,31,Australia,,Raw,Open,89.7,90,-167.5,177.5,190,190,110,117.5,122.5,122.5,-200,210,225,225,537.5,SBD
6,Nicholas Charles,,M,2001,22,Australia,,Raw,Open,86.1,90,170,185,-192.5,185,100,107.5,110,110,200,220,230,230,525,SBD
7,McFarlane Pattinson,,M,1987,36,Australia,,Raw,Open,87.4,90,180,195,200,200,102.5,110,-112.5,110,185,205,215,215,525,SBD
8,Jacob Ralph,,M,1997,26,Australia,,Raw,Open,88,90,142.5,150,-155,150,125,130,135,135,210,220,227.5,227.5,512.5,SBD
1,Gabriel Lattouf,,M,1992,30,Australia,,Raw,Open,99,100,225,237.5,245,245,137.5,147.5,-152.5,147.5,280,300,-307.5,300,692.5,SBD
2,James Zentveld,,M,2003,20,Australia,,Raw,Open,94.6,100,180,200,220,220,140,-145,145,145,-260,280,-300,280,645,SBD
3,Andrew Cashion,,M,1995,28,Australia,,Raw,Open,92.7,100,200,217.5,225,225,125,132.5,137.5,137.5,240,257.5,272.5,272.5,635,SBD
4,Charles Cini,,M,1988,35,Australia,,Raw,Open,95.5,100,220,232.5,240,240,120,-130,-137.5,120,240,250,-260,250,610,SBD
5,Joshua Eaves,,M,1996,27,Australia,,Raw,Open,98.6,100,200,217.5,227.5,227.5,130,137.5,142.5,142.5,205,230,-240,230,600,SBD
1,Daniel Spence,,M,1998,25,Australia,,Raw,Open,107.8,110,240,-257.5,257.5,257.5,155,162.5,165,165,255,275,-295,275,697.5,SBD
2,Kyle Moat,,M,1994,29,Australia,,Raw,Open,102.4,110,172.5,185,-195,185,115,122.5,130,130,200,215,-230,215,530,SBD
3,Thomas Newnham,,M,2002,20,Australia,,Raw,Open,107.8,110,170,,,170,132.5,137.5,-145,137.5,180,-200,215,215,522.5,SBD
4,Charlie Sleep,,M,1998,25,Australia,,Raw,Open,108.3,110,135,150,-157.5,150,92.5,100,105,105,165,185,-200,185,440,SBD
1,Molesi Paulo,,M,2000,23,Australia,,Raw,Open,122.4,125,225,240,250,250,162.5,172.5,-177.5,172.5,245,265,270,270,692.5,SBD
2,Jackson Hart,,M,1994,29,Australia,,Raw,Open,124.6,125,190,207.5,220,220,130,140,150,150,235,255,270,270,640,SBD
